^C:\USERS\ОНТОН\SOURCE\REPOS\HOMEWORK 16.5\DEBUG\HOMEWORK 16.5.OBJ
C:\USERS\Онтон\SOURCE\REPOS\HOMEWORK 16.5\DEBUG\HOMEWORK 16.5.EXE
C:\USERS\Онтон\SOURCE\REPOS\HOMEWORK 16.5\DEBUG\HOMEWORK 16.5.ILK
C:\USERS\ОНТОН\SOURCE\REPOS\HOMEWORK 16.5\DEBUG\HOMEWORK 16.5.PDB
